%YAML 1.1
%TAG !u! tag:unity3d.com,2011:
--- !u!65 &4037367538174996548
BoxCollider:
  m_ObjectHideFlags: 0
  m_CorrespondingSourceObject: {fileID: 0}
  m_PrefabInstance: {fileID: 0}
  m_PrefabAsset: {fileID: 0}
  m_GameObject: {fileID: 3169308997193093010}
  m_Material: {fileID: 0}
  m_IsTrigger: 1
  m_Enabled: 1
  serializedVersion: 2
  m_Size: {x: 0.005236686, y: 0.0031670718, z: 0.005482}
  m_Center: {x: -0.000573299, y: -0.0015067796, z: 0.00043737423}
--- !u!1 &6402509723113198284
GameObject:
  m_ObjectHideFlags: 0
  m_CorrespondingSourceObject: {fileID: 0}
  m_PrefabInstance: {fileID: 0}
  m_PrefabAsset: {fileID: 0}
  serializedVersion: 6
  m_Component:
  - component: {fileID: 6402509723113198287}
  m_Layer: 0
  m_Name: PickUpCamera
  m_TagString: Flash
  m_Icon: {fileID: 0}
  m_NavMeshLayer: 0
  m_StaticEditorFlags: 0
  m_IsActive: 1
--- !u!4 &6402509723113198287
Transform:
  m_ObjectHideFlags: 0
  m_CorrespondingSourceObject: {fileID: 0}
  m_PrefabInstance: {fileID: 0}
  m_PrefabAsset: {fileID: 0}
  m_GameObject: {fileID: 6402509723113198284}
  m_LocalRotation: {x: 0, y: 0, z: 0, w: 1}
  m_LocalPosition: {x: -8.537735, y: 0.030004025, z: -5.097277}
  m_LocalScale: {x: 1, y: 1, z: 1}
  m_Children:
  - {fileID: 2134983734878944641}
  m_Father: {fileID: 0}
  m_RootOrder: 0
  m_LocalEulerAnglesHint: {x: 0, y: 0, z: 0}
--- !u!1001 &6402509722476058267
PrefabInstance:
  m_ObjectHideFlags: 0
  serializedVersion: 2
  m_Modification:
    m_TransformParent: {fileID: 6402509723113198287}
    m_Modifications:
    - target: {fileID: -4216859302048453862, guid: b903b5428b5ec884fabfe94fabbdf5c3,
        type: 3}
      propertyPath: m_RootOrder
      value: 0
      objectReference: {fileID: 0}
    - target: {fileID: -4216859302048453862, guid: b903b5428b5ec884fabfe94fabbdf5c3,
        type: 3}
      propertyPath: m_LocalScale.y
      value: 100
      objectReference: {fileID: 0}
    - target: {fileID: -4216859302048453862, guid: b903b5428b5ec884fabfe94fabbdf5c3,
        type: 3}
      propertyPath: m_LocalScale.z
      value: 100
      objectReference: {fileID: 0}
    - target: {fileID: -4216859302048453862, guid: b903b5428b5ec884fabfe94fabbdf5c3,
        type: 3}
      propertyPath: m_LocalPosition.x
      value: 0
      objectReference: {fileID: 0}
    - target: {fileID: -4216859302048453862, guid: b903b5428b5ec884fabfe94fabbdf5c3,
        type: 3}
      propertyPath: m_LocalPosition.y
      value: 0.3170278
      objectReference: {fileID: 0}
    - target: {fileID: -4216859302048453862, guid: b903b5428b5ec884fabfe94fabbdf5c3,
        type: 3}
      propertyPath: m_LocalPosition.z
      value: 0
      objectReference: {fileID: 0}
    - target: {fileID: -4216859302048453862, guid: b903b5428b5ec884fabfe94fabbdf5c3,
        type: 3}
      propertyPath: m_LocalRotation.w
      value: 0
      objectReference: {fileID: 0}
    - target: {fileID: -4216859302048453862, guid: b903b5428b5ec884fabfe94fabbdf5c3,
        type: 3}
      propertyPath: m_LocalRotation.x
      value: 0
      objectReference: {fileID: 0}
    - target: {fileID: -4216859302048453862, guid: b903b5428b5ec884fabfe94fabbdf5c3,
        type: 3}
      propertyPath: m_LocalRotation.y
      value: 0.7071068
      objectReference: {fileID: 0}
    - target: {fileID: -4216859302048453862, guid: b903b5428b5ec884fabfe94fabbdf5c3,
        type: 3}
      propertyPath: m_LocalRotation.z
      value: 0.7071068
      objectReference: {fileID: 0}
    - target: {fileID: -4216859302048453862, guid: b903b5428b5ec884fabfe94fabbdf5c3,
        type: 3}
      propertyPath: m_LocalEulerAnglesHint.x
      value: -90
      objectReference: {fileID: 0}
    - target: {fileID: -4216859302048453862, guid: b903b5428b5ec884fabfe94fabbdf5c3,
        type: 3}
      propertyPath: m_LocalEulerAnglesHint.y
      value: 180
      objectReference: {fileID: 0}
    - target: {fileID: -4216859302048453862, guid: b903b5428b5ec884fabfe94fabbdf5c3,
        type: 3}
      propertyPath: m_LocalEulerAnglesHint.z
      value: 0
      objectReference: {fileID: 0}
    - target: {fileID: -1504981713932161579, guid: b903b5428b5ec884fabfe94fabbdf5c3,
        type: 3}
      propertyPath: m_Materials.Array.data[0]
      value: 
      objectReference: {fileID: 2100000, guid: cc70ce986c0876744bb102e4cfcace51, type: 2}
    - target: {fileID: -927199367670048503, guid: b903b5428b5ec884fabfe94fabbdf5c3,
        type: 3}
      propertyPath: m_Name
      value: CameraModel
      objectReference: {fileID: 0}
    - target: {fileID: -927199367670048503, guid: b903b5428b5ec884fabfe94fabbdf5c3,
        type: 3}
      propertyPath: m_TagString
      value: Flash
      objectReference: {fileID: 0}
    m_RemovedComponents: []
  m_SourcePrefab: {fileID: 100100000, guid: b903b5428b5ec884fabfe94fabbdf5c3, type: 3}
--- !u!1 &3169308997193093010 stripped
GameObject:
  m_CorrespondingSourceObject: {fileID: -927199367670048503, guid: b903b5428b5ec884fabfe94fabbdf5c3,
    type: 3}
  m_PrefabInstance: {fileID: 6402509722476058267}
  m_PrefabAsset: {fileID: 0}
--- !u!4 &2134983734878944641 stripped
Transform:
  m_CorrespondingSourceObject: {fileID: -4216859302048453862, guid: b903b5428b5ec884fabfe94fabbdf5c3,
    type: 3}
  m_PrefabInstance: {fileID: 6402509722476058267}
  m_PrefabAsset: {fileID: 0}
